# DeuTex 5.2.1
# PWAD creation directives

# List of levels
[levels]
e1m1
e1m2
e1m3
e1m4
e1m5
e1m6
e1m7
e1m8
e1m9
e2m1
e2m2
e2m3
e2m4
e2m5
e2m6
e2m7
e2m8
e2m9
e3m1
e3m2
e3m3
e3m4
e3m5
e3m6
e3m7
e3m8
e3m9
e4m1
e4m2
e4m3
e4m4
e4m5
e4m6
e4m7
e4m8
e4m9
map01
map02
map03
map04
map05

# List of data Lumps
[lumps]
colormap
demo1
demo2
demo3
demo4
dehacked
dmxgus
endoom
__eureka
genmidi
playpal

# List of definitions for TEXTURE1
[texture1]
TEXTURE1

# List of Sounds
[sounds]
DSPISTOL
DSSHOTGN
DSSGCOCK
DSSAWUP
DSSAWIDL
DSSAWFUL
DSSAWHIT
DSRLAUNC
DSRXPLOD
DSFIRSHT
DSFIRXPL
DSPSTART
DSPSTOP
DSDOROPN
DSDORCLS
DSSTNMOV
DSSWTCHN
DSSWTCHX
DSPLPAIN
DSDMPAIN
DSPOPAIN
DSSLOP
DSITEMUP
DSWPNUP
DSOOF
DSTELEPT
DSPOSIT1
DSPOSIT2
DSPOSIT3
DSBGSIT1
DSBGSIT2
DSSGTSIT
DSBRSSIT
DSSGTATK
DSCLAW
DSPLDETH
DSPDIEHI
DSPODTH1
DSPODTH2
DSPODTH3
DSBGDTH1
DSBGDTH2
DSSGTDTH
DSBRSDTH
DSPOSACT
DSBGACT
DSDMACT
DSNOWAY
DSBAREXP
DSPUNCH
DSTINK
DSBDOPN
DSBDCLS
DSITMBK
DSGETPOW
DSPLASMA
DSBFG
DSCACSIT
DSCYBSIT
DSSPISIT
DSSKLATK
DSCACDTH
DSSKLDTH
DSCYBDTH
DSSPIDTH
DSHOOF
DSMETAL

# List of Musics
[musics]
d_betwee
d_bunny
d_countd
d_doom
d_e1m1
d_e1m2
d_e1m3
d_e1m4
d_e1m5
d_e1m6
d_e1m7
d_e1m8
d_e1m9
d_e2m1
d_e2m2
d_e2m3
d_e2m4
d_e2m5
d_e2m6
d_e2m7
d_e2m8
d_e2m9
d_e3m1
d_e3m2
d_e3m3
d_e3m4
d_e3m5
d_e3m6
d_e3m7
d_e3m8
d_e3m9
d_inter
d_introa
d_intro
d_read_m
d_runnin
d_stalks
d_ultima
d_victor


# List of Pictures (with insertion point)
[graphics]
HELP  0 0
CREDIT  0 0
TITLEPIC  0 0
STBAR 0 0
STARMS  0 0
STGNUM0 0 0
STGNUM1 0 0
STGNUM2 0 0
STGNUM3 0 0
STGNUM4 0 0
STGNUM5 0 0
STGNUM6 0 0
STGNUM7 0 0
STGNUM8 0 0
STGNUM9 0 0
STTMINUS  0 -5
STYSNUM0 0 0
STYSNUM1 -1  0
STYSNUM2 0 0
STYSNUM3 0 0
STYSNUM4 0 0
STYSNUM5 0 0
STYSNUM6 0 0
STYSNUM7 0 0
STYSNUM8 0 0
STYSNUM9 0 0
STTNUM0 0 0
STTNUM1 -1  0
STTNUM2 0 0
STTNUM3 0 0
STTNUM4 0 0
STTNUM5 0 0
STTNUM6 0 0
STTNUM7 0 0
STTNUM8 0 0
STTNUM9 0 0
STTPRCNT  0 0
STKEYS0 0 -1
STKEYS1 0 -1
STKEYS2 0 -1
STKEYS3 0 0
STKEYS4 0 0
STKEYS5 0 0
STDISK  0 -1
STCDROM -1  -1
STCFN033  0 0
STCFN034  0 0
STCFN035  0 0
STCFN036  0 0
STCFN037  0 0
STCFN038  0 0
STCFN039  0 0
STCFN040  0 0
STCFN041  0 0
STCFN042  0 0
STCFN043  0 -1
STCFN044  0 -3
STCFN045  0 -2
STCFN046  0 -4
STCFN047  0 0
STCFN048  0 0
STCFN049  0 0
STCFN050  0 0
STCFN051  0 0
STCFN052  0 0
STCFN053  0 0
STCFN054  0 0
STCFN055  0 0
STCFN056  0 0
STCFN057  0 0
STCFN058  0 0
STCFN059  0 0
STCFN060  0 0
STCFN061  0 -1
STCFN062  0 0
STCFN063  0 0
STCFN064  0 0
STCFN065  0 0
STCFN066  0 0
STCFN067  0 0
STCFN068  0 0
STCFN069  0 0
STCFN070  0 0
STCFN071  0 0
STCFN072  0 0
STCFN073  0 0
STCFN074  0 0
STCFN075  0 0
STCFN076  0 0
STCFN077  0 0
STCFN078  0 0
STCFN079  0 0
STCFN080  0 0
STCFN081  0 0
STCFN082  0 0
STCFN083  0 0
STCFN084  0 0
STCFN085  0 0
STCFN086  0 0
STCFN087  0 0
STCFN088  0 0
STCFN089  0 0
STCFN090  0 0
STCFN091  0 0
STCFN092  0 0
STCFN093  0 0
STCFN094  0 0
STCFN095  0 -4
STCFN121  0 0
STFB1 0 0
STFB0 0 0
STFB2 0 0
STFB3 0 0
STPB1 0 0
STPB0 0 0
STPB2 0 0
STPB3 0 0
STFST01 -2  -1
STFST00 -2  -1
STFST02 -2  -1
STFTL00 -2  -1
STFTR00 -2  -1
STFOUCH0  -2  -1
STFEVL0 -2  -1
STFKILL0  -2  -1
STFST11 -2  -1
STFST10 -2  -1
STFST12 -2  -1
STFTL10 -2  -1
STFTR10 -2  -1
STFOUCH1  -2  -1
STFEVL1 -2  -1
STFKILL1  -2  -1
STFST21 -2  -1
STFST20 -2  -1
STFST22 -2  -1
STFTL20 -2  -1
STFTR20 -2  -1
STFOUCH2  -2  -1
STFEVL2 -2  -1
STFKILL2  -2  -1
STFST31 -2  -1
STFST30 -2  -1
STFST32 -2  -1
STFTL30 -2  -1
STFTR30 -2  -1
STFOUCH3  -2  -1
STFEVL3 -2  -1
STFKILL3  -2  -1
STFST41 -2  -1
STFST40 -2  -1
STFST42 -2  -1
STFTL40 -2  -1
STFTR40 -2  -1
STFOUCH4  -2  -1
STFEVL4 -2  -1
STFKILL4  -2  -1
STFGOD0 -2  -1
STFDEAD0  -2  -1
M_DOOM  0 0
M_RDTHIS  0 0
M_OPTION  0 0
M_QUITG 0 0
M_NGAME 0 0
M_SKULL1  0 0
M_SKULL2  3 3
M_THERMO  -2  -1
M_THERMR  0 0
M_THERMM  0 0
M_THERML  -2  0
M_ENDGAM  0 0
M_PAUSE 0 0
M_MESSG 0 0
M_MSGON 0 0
M_MSGOFF  0 0
M_HURT  0 0
M_JKILL 0 0
M_ROUGH 0 0
M_SKILL 0 0
M_NEWG  0 0
M_ULTRA 0 0
M_NMARE 0 0
M_SVOL  0 0
M_OPTTTL  0 0
M_SAVEG 0 0
M_LOADG 0 0
M_DISP  0 0
M_MSENS 0 0
M_GDHIGH  0 0
M_GDLOW 0 0
M_DETAIL  0 0
M_DISOPT  0 0
M_SCRNSZ  0 0
M_SGTTL 0 0
M_LGTTL 0 0
M_SFXVOL  0 0
M_MUSVOL  0 0
M_LSLEFT  3 11
M_LSCNTR  3 11
M_LSRGHT  3 11
BRDR_TL -5  -5
BRDR_T  0 -5
BRDR_TR 0 -5
BRDR_L  -5  0
BRDR_R  0 0
BRDR_BL -5  0
BRDR_B  0 0
BRDR_BR 0 0
INTERPIC  0 0
WIOSTK  0 0
WIOSTI  0 0
WIF 0 0
WIMSTT  0 0
WIOSTS  0 0
WIOSTF  0 0
WITIME  0 0
WIPAR 0 0
WIMSTAR 0 0
WIMINUS 0 -5
WIPCNT  0 0
WINUM0  0 0
WINUM1  0 0
WINUM2  0 0
WINUM3  0 0
WINUM4  0 0
WINUM5  0 0
WINUM6  0 0
WINUM7  0 0
WINUM8  0 0
WINUM9  0 0
WICOLON 0 -1
WISUCKS 0 0
WIFRGS  0 0
CWILV00 0 0
CWILV01 0 0
CWILV02 0 0
CWILV03 0 0
CWILV04 0 0
WIP1  0 0
WIP2  0 0
WIP3  0 0
WIP4  0 0
WIBP1 0 0
WIBP2 0 0
WIBP3 0 0
WIBP4 0 0
WIKILRS 0 0
WIVCTMS 0 0
WISCRT2 0 0
WIENTER 0 0
ammnum0
ammnum1
ammnum2
ammnum3
ammnum4
ammnum5
ammnum6
ammnum7
ammnum8
ammnum9
brdr_bl
brdr_b
brdr_br
brdr_l
brdr_r
brdr_tl
brdr_t
brdr_tr
credit
cwilv00
cwilv01
cwilv02
cwilv03
cwilv04
end0
end1
end2
end3
end4
end5
end6
endpic
help1
help
interpic
m_detail
m_disopt
m_disp
m_doom
m_endgam
m_epi1
m_epi2
m_epi3
m_epi4
m_episod
m_gdhigh
m_gdlow
m_hurt
m_jkill
m_lgttl
m_loadg
m_lscntr
m_lsleft
m_lsrght
m_messg
m_msens
m_msgoff
m_msgon
m_musvol
m_newg
m_ngame
m_nmare
m_option
m_optttl
m_pause
m_quitg
m_rdthis
m_rough
m_saveg
m_scrnsz
m_sfxvol
m_sgttl
m_skill
m_skull1
m_skull2
m_svol
m_therml
m_thermm
m_thermo
m_thermr
m_ultra
pfub1
pfub2
starms
stbar
stcdrom
stcfn033
stcfn034
stcfn035
stcfn036
stcfn037
stcfn038
stcfn039
stcfn040
stcfn041
stcfn042
stcfn043
stcfn044
stcfn045
stcfn046
stcfn047
stcfn048
stcfn049
stcfn050
stcfn051
stcfn052
stcfn053
stcfn054
stcfn055
stcfn056
stcfn057
stcfn058
stcfn059
stcfn060
stcfn061
stcfn062
stcfn063
stcfn064
stcfn065
stcfn066
stcfn067
stcfn068
stcfn069
stcfn070
stcfn071
stcfn072
stcfn073
stcfn074
stcfn075
stcfn076
stcfn077
stcfn078
stcfn079
stcfn080
stcfn081
stcfn082
stcfn083
stcfn084
stcfn085
stcfn086
stcfn087
stcfn088
stcfn089
stcfn090
stcfn091
stcfn092
stcfn093
stcfn094
stcfn095
stcfn121
stdisk
stfb0
stfb1
stfb2
stfb3
stfdead0
stfevl0
stfevl1
stfevl2
stfevl3
stfevl4
stfgod0
stfkill0
stfkill1
stfkill2
stfkill3
stfkill4
stfouch0
stfouch1
stfouch2
stfouch3
stfouch4
stfst00
stfst01
stfst02
stfst10
stfst11
stfst12
stfst20
stfst21
stfst22
stfst30
stfst31
stfst32
stfst40
stfst41
stfst42
stftl00
stftl10
stftl20
stftl30
stftl40
stftr00
stftr10
stftr20
stftr30
stftr40
stgnum0
stgnum1
stgnum2
stgnum3
stgnum4
stgnum5
stgnum6
stgnum7
stgnum8
stgnum9
stkeys0
stkeys1
stkeys2
stkeys3
stkeys4
stkeys5
stpb0
stpb1
stpb2
stpb3
sttminus
sttnum0
sttnum1
sttnum2
sttnum3
sttnum4
sttnum5
sttnum6
sttnum7
sttnum8
sttnum9
sttprcnt
stysnum0
stysnum1
stysnum2
stysnum3
stysnum4
stysnum5
stysnum6
stysnum7
stysnum8
stysnum9
titlepic_2
titlepic
victory2
wia00000
wia00001
wia00002
wia00100
wia00101
wia00102
wia00200
wia00201
wia00202
wia00300
wia00301
wia00302
wia00400
wia00401
wia00402
wia00500
wia00501
wia00502
wia00600
wia00601
wia00602
wia00700
wia00701
wia00702
wia00800
wia00801
wia00802
wia00900
wia00901
wia00902
wia10000
wia10100
wia10200
wia10300
wia10400
wia10500
wia10600
wia10700
wia10701
wia10702
wia20000
wia20001
wia20002
wia20100
wia20101
wia20102
wia20200
wia20201
wia20202
wia20300
wia20301
wia20302
wia20400
wia20401
wia20402
wia20500
wia20501
wia20502
wibp1
wibp2
wibp3
wibp4
wicolon
wienter
wif
wifrgs
wikilrs
wilv00
wilv01
wilv02
wilv03
wilv04
wilv05
wilv06
wilv07
wilv08
wilv10
wilv11
wilv12
wilv13
wilv14
wilv15
wilv16
wilv17
wilv18
wilv20
wilv21
wilv22
wilv23
wilv24
wilv25
wilv26
wilv27
wilv28
wilv30
wilv31
wilv32
wilv33
wilv34
wilv35
wilv36
wilv37
wilv38
wimap0
wimap1
wimap2
wiminus
wimstar
wimstt
winum0
winum1
winum2
winum3
winum4
winum5
winum6
winum7
winum8
winum9
wiostf
wiosti
wiostk
wiosts
wip1
wip2
wip3
wip4
wipar
wipcnt
wiscrt2
wisplat
wisucks
witime
wiurh0
wiurh1
wivctms


# List of Sprites
[sprites]
CHGGA0  -104  -117
CHGGB0  -104  -119
CHGFA0  -118  -98
CHGFB0  -120  -97
SAWGA0  -75 -113
SAWGB0  -75 -113
SAWGC0  -68 -79
SAWGD0  -67 -79
PISGA0  -126  -106
PISGB0  -104  -86
PISGC0  -119  -87
PISGD0  -125  -87
PISGE0  -106  -65
PISFA0  -140  -66
BAL1A0  8 8
BAL1B0  8 8
BAL1C0  19  18
BAL1D0  22  22
BAL1E0  25  24
PUFFA0  2 3
PUFFB0  4 4
PUFFC0  6 5
PUFFD0  8 7
BLUDA0  2 3
BLUDB0  4 4
BLUDC0  7 6
BAL2A0  7 8
BAL2B0  7 7
BAL2C0  23  24
BAL2D0  25  21
BAL2E0  26  23
MISLB0  37  29
MISLC0  42  34
MISLD0  50  43
TFOGA0  19  58
TFOGB0  19  51
TFOGC0  20  45
TFOGD0  15  44
TFOGE0  8 34
TFOGF0  4 30
TFOGG0  1 27
TFOGH0  3 29
TFOGI0  6 28
TFOGJ0  8 30
IFOGA0  18  33
IFOGB0  16  26
IFOGC0  6 15
IFOGD0  2 10
IFOGE0  0 7
APLSA0  7 10
APLSB0  6 8
APBXA0  12  15
APBXB0  19  18
APBXC0  17  17
APBXD0  10  13
APBXE0  4 6
MANFA1  19  17
MANFA8A2  33  17
MANFA7A3  34  16
MANFA6A4  25  19
MANFA5  13  15
MANFB1  19  17
MANFB8B2  27  17
MANFB7B3  30  17
MANFB6B4  18  19
MANFB5  12  13
BOSFA0  15  35
BOSFB0  16  36
BOSFC0  17  37
BOSFD0  17  37
PUNGA0  -151  -126
PUNGB0  -67 -127
PUNGC0  -52 -116
PUNGD0  -36 -92
MISGA0  -119  -121
MISGB0  -112  -125
MISFA0  -136  -105
MISFB0  -126  -101
MISFC0  -117  -94
MISFD0  -112  -81
MISLA1  7 13
MISLA8A2  16  13
MISLA7A3  25  13
MISLA6A4  12  13
MISLA5  7 13
SHTGA0  -121  -108
SHTGB0  -43 -47
SHTGC0  -30 -17
SHTGD0  -29 -37
SHTFA0  -141  -95
SHTFB0  -136  -86
SHT2A0  -134  -113
SHT2B0  -100  -65
SHT2C0  -25 -38
SHT2D0  -118  -88
SHT2E0  0 -105
SHT2F0  -105  -117
SHT2G0  -118  -88
SHT2H0  -123  -83
SHT2I0  -137  -99
SHT2J0  -131  -90
PLSGA0  -123  -107
PLSGB0  -64 -57
PLSFA0  -123  -93
PLSFB0  -122  -95
PLSSA0  7 9
PLSSB0  6 8
PLSEA0  12  11
PLSEB0  19  18
PLSEC0  17  18
PLSED0  13  13
PLSEE0  0 2
BFGGA0  -81 -116
BFGGB0  -81 -116
BFGGC0  -88 -117
BFGFA0  -125  -98
BFGFB0  -97 -77
BFS1A0  24  37
BFS1B0  24  37
BFE1A0  30  27
BFE1B0  40  36
BFE1C0  72  59
BFE1D0  67  14
BFE1E0  65  3
BFE1F0  49  0
BFE2A0  32  24
BFE2B0  18  22
BFE2C0  19  17
BFE2D0  5 4
SARGA1  18  51
SARGA2A8  29  50
SARGA3A7  28  48
SARGA4A6  25  48
SARGA5  18  49
SARGB1  19  53
SARGB2B8  23  54
SARGB3B7  28  51
SARGB4B6  30  51
SARGB5  20  48
SARGC1  17  50
SARGC2C8  28  49
SARGC3C7  29  48
SARGC4C6  29  48
SARGC5  18  49
SARGD1  19  53
SARGD2D8  29  53
SARGD3D7  29  53
SARGD4D6  30  53
SARGD5  20  48
SARGE1  22  52
SARGE2  20  50
SARGE3  23  48
SARGE4  25  46
SARGE5  20  48
SARGE6  25  47
SARGE7  33  46
SARGE8  30  49
SARGF1  22  52
SARGF2  23  50
SARGF3  30  48
SARGF4  28  47
SARGF5  20  49
SARGF6  25  47
SARGF7  34  47
SARGF8  30  49
SARGG1  22  52
SARGG2  25  53
SARGG3  33  50
SARGG4  28  48
SARGG5  20  51
SARGG6  26  47
SARGG7  34  48
SARGG8  30  50
SARGH1  18  51
SARGH2  27  48
SARGH3  29  46
SARGH4  23  44
SARGH5  15  45
SARGH6  20  45
SARGH7  25  46
SARGH8  30  47
SARGI0  25  51
SARGJ0  28  59
SARGK0  21  57
SARGL0  29  55
SARGM0  33  41
SARGN0  33  27
TROOA1  19  52
TROOA2A8  17  50
TROOA3A7  15  44
TROOA4A6  20  42
TROOA5  21  44
TROOB1  17  51
TROOB2B8  13  52
TROOB3B7  16  46
TROOB4B6  19  42
TROOB5  20  41
TROOC1  17  55
TROOC2C8  14  53
TROOC3C7  13  48
TROOC4C6  12  46
TROOC5  22  44
TROOD1  16  52
TROOD2D8  17  50
TROOD3D7  19  43
TROOD4D6  17  41
TROOD5  21  41
TROOE1  30  55
TROOE2E8  11  51
TROOE3E7  23  44
TROOE4E6  20  42
TROOE5  17  43
TROOF1  18  50
TROOF2F8  25  49
TROOF3F7  18  44
TROOF4F6  16  42
TROOF5  12  41
TROOG1  5 50
TROOG2G8  25  50
TROOG3G7  27  46
TROOG4G6  23  42
TROOG5  16  44
TROOH1  18  50
TROOH2H8  6 51
TROOH3H7  12  52
TROOH4H6  9 51
TROOH5  21  52
TROOI0  22  57
TROOJ0  21  54
TROOK0  18  54
TROOL0  23  45
TROOM0  29  19
TROON0  24  54
TROOO0  20  56
TROOP0  24  56
TROOQ0  24  56
TROOR0  24  39
TROOS0  27  29
TROOT0  27  26
TROOU0  27  13
PLAYA1  18  51
PLAYA2A8  17  50
PLAYA3A7  21  50
PLAYA4A6  21  49
PLAYA5  21  47
PLAYB1  19  53
PLAYB2B8  18  52
PLAYB3B7  18  52
PLAYB4B6  21  52
PLAYB5  18  51
PLAYC1  17  51
PLAYC2C8  17  51
PLAYC3C7  18  51
PLAYC4C6  22  51
PLAYC5  17  50
PLAYD1  16  52
PLAYD2D8  17  52
PLAYD3D7  21  52
PLAYD4D6  23  52
PLAYD5  19  51
PLAYE1  12  51
PLAYE2E8  21  51
PLAYE3E7  26  50
PLAYE4E6  18  48
PLAYE5  12  46
PLAYF1  12  51
PLAYF2F8  23  51
PLAYF3F7  27  50
PLAYF4F6  20  48
PLAYF5  11  46
PLAYG1  20  52
PLAYG2G8  16  52
PLAYG3G7  21  52
PLAYG4G6  20  50
PLAYG5  17  50
PLAYH0  16  47
PLAYI0  11  39
PLAYJ0  12  43
PLAYK0  17  34
PLAYL0  27  9
PLAYM0  27  9
PLAYN0  27  9
PLAYO0  16  53
PLAYP0  18  56
PLAYQ0  21  54
PLAYR0  24  49
PLAYS0  23  43
PLAYT0  24  36
PLAYU0  24  29
PLAYV0  24  19
PLAYW0  24  18
POSSA1  18  50
POSSA2A8  17  50
POSSA3A7  21  50
POSSA4A6  21  48
POSSA5  21  47
POSSB1  19  52
POSSB2B8  18  51
POSSB3B7  18  52
POSSB4B6  20  52
POSSB5  18  51
POSSC1  17  50
POSSC2C8  17  50
POSSC3C7  18  52
POSSC4C6  20  51
POSSC5  17  51
POSSD1  16  52
POSSD2D8  18  51
POSSD3D7  21  52
POSSD4D6  22  52
POSSD5  19  51
POSSE1  12  50
POSSE2E8  21  50
POSSE3E7  26  50
POSSE4E6  18  48
POSSE5  12  46
POSSF1  13  50
POSSF2F8  23  50
POSSF3F7  27  50
POSSF4F6  20  48
POSSF5  11  46
POSSG1  20  52
POSSG2G8  16  53
POSSG3G7  21  53
POSSG4G6  20  51
POSSG5  17  49
POSSH0  19  52
POSSI0  16  47
POSSJ0  22  42
POSSK0  23  29
POSSL0  22  12
POSSM0  19  56
POSSN0  18  59
POSSO0  25  58
POSSP0  24  52
POSSQ0  27  47
POSSR0  24  39
POSSS0  24  32
POSST0  24  22
POSSU0  24  17
SPOSA1  18  50
SPOSA2A8  13  50
SPOSA3A7  18  50
SPOSA4A6  21  48
SPOSA5  20  47
SPOSB1  19  52
SPOSB2B8  12  51
SPOSB3B7  18  53
SPOSB4B6  20  52
SPOSB5  17  51
SPOSC1  17  50
SPOSC2C8  10  50
SPOSC3C7  19  52
SPOSC4C6  20  51
SPOSC5  17  51
SPOSD1  16  52
SPOSD2D8  11  51
SPOSD3D7  18  53
SPOSD4D6  21  52
SPOSD5  19  52
SPOSE1  12  50
SPOSE2E8  17  50
SPOSE3E7  19  49
SPOSE4E6  14  48
SPOSE5  12  46
SPOSF1  13  50
SPOSF2F8  21  50
SPOSF3F7  24  49
SPOSF4F6  19  48
SPOSF5  11  46
SPOSG1  12  52
SPOSG2G8  13  51
SPOSG3G7  21  50
SPOSG4G6  20  50
SPOSG5  17  49
SPOSH0  14  57
SPOSI0  16  51
SPOSJ0  22  43
SPOSK0  23  29
SPOSL0  24  12
SPOSM0  14  56
SPOSN0  18  59
SPOSO0  25  58
SPOSP0  24  52
SPOSQ0  27  47
SPOSR0  24  39
SPOSS0  24  32
SPOST0  24  22
SPOSU0  24  17
CPOSA1  22  54
CPOSA2  22  54
CPOSA3  26  53
CPOSA4  15  52
CPOSA5  20  52
CPOSA6  13  52
CPOSA7  18  53
CPOSA8  16  54
CPOSB1  22  56
CPOSB2  17  55
CPOSB3  14  55
CPOSB4  12  53
CPOSB5  19  53
CPOSB6  12  54
CPOSB7  12  55
CPOSB8  16  56
CPOSC1  23  54
CPOSC2  15  54
CPOSC3  17  53
CPOSC4  13  52
CPOSC5  17  52
CPOSC6  20  52
CPOSC7  22  53
CPOSC8  17  54
CPOSD1  22  56
CPOSD2  19  56
CPOSD3  14  55
CPOSD4  13  54
CPOSD5  19  53
CPOSD6  12  54
CPOSD7  12  55
CPOSD8  18  55
CPOSE1  21  53
CPOSE2  25  53
CPOSE3  27  53
CPOSE4  16  51
CPOSE5  23  52
CPOSE6  18  51
CPOSE7  25  53
CPOSE8  18  53
CPOSF1  21  53
CPOSF2  29  53
CPOSF3  31  53
CPOSF4  16  51
CPOSF5  23  52
CPOSF6  21  51
CPOSF7  25  53
CPOSF8  22  53
CPOSG1  23  53
CPOSG2  17  53
CPOSG3  24  53
CPOSG4  20  51
CPOSG5  21  51
CPOSG6  17  52
CPOSG7  20  54
CPOSG8  17  54
CPOSH0  20  56
CPOSI0  23  59
CPOSJ0  28  54
CPOSK0  30  44
CPOSL0  31  32
CPOSM0  32  20
CPOSN0  32  16
CPOSO0  26  54
CPOSP0  28  56
CPOSQ0  30  45
CPOSR0  32  36
CPOSS0  32  27
CPOST0  32  15
SKULA1  20  50
SKULA8A2  15  47
SKULA7A3  14  54
SKULA6A4  13  53
SKULA5  21  48
SKULB1  20  49
SKULB8B2  15  53
SKULB7B3  14  54
SKULB6B4  13  53
SKULB5  21  48
SKULC1  23  47
SKULC8C2  32  37
SKULC7C3  33  36
SKULC6C4  24  36
SKULC5  20  30
SKULD1  23  46
SKULD8D2  25  37
SKULD7D3  33  36
SKULD6D4  18  36
SKULD5  20  31
SKULE1  14  53
SKULE8E2  15  54
SKULE7E3  15  54
SKULE6E4  11  53
SKULE5  16  49
SKULF0  17  53
SKULG0  15  53
SKULH0  24  48
SKULI0  35  58
SKULJ0  45  75
SKULK0  49  85
HEADA1  31  67
HEADA2A8  26  67
HEADA3A7  27  68
HEADA4A6  32  68
HEADA5  28  66
HEADB1  31  70
HEADC1  31  71
HEADD1  31  72
HEADB2B8  29  69
HEADC2C8  29  72
HEADD2D8  29  72
HEADB3B7  30  68
HEADC3C7  30  68
HEADD3D7  30  72
HEADB4B6  32  67
HEADC4C6  32  67
HEADD4D6  32  70
HEADB5  32  68
HEADC5  32  68
HEADD5  32  68
HEADE1  31  68
HEADF1  31  68
HEADG0  31  68
HEADE2E8  30  67
HEADF2F8  31  66
HEADE3E7  29  68
HEADF3F7  31  67
HEADE4E6  31  69
HEADF4F6  31  69
HEADE5  30  68
HEADF5  30  68
HEADH0  31  68
HEADI0  31  68
HEADJ0  31  72
HEADK0  35  63
HEADL0  37  47
PAINA1  38  60
PAINA2A8  34  58
PAINA3A7  35  60
PAINA4A6  35  59
PAINA5  37  58
PAINB1  39  60
PAINB2B8  38  58
PAINB3B7  35  60
PAINB4B6  35  59
PAINB5  38  58
PAINC1  37  60
PAINC2C8  39  58
PAINC3C7  35  60
PAINC4C6  35  59
PAINC5  36  58
PAIND1  44  62
PAIND2D8  40  61
PAIND3D7  35  61
PAIND4D6  35  59
PAIND5  37  58
PAINE1  43  62
PAINE2E8  41  62
PAINE3E7  34  61
PAINE4E6  35  60
PAINE5  36  59
PAINF1  38  62
PAINF2F8  38  62
PAINF3F7  30  63
PAINF4F6  36  69
PAINF5  37  68
PAING1  38  60
PAING2G8  35  60
PAING3G7  34  62
PAING4G6  36  59
PAING5  47  57
PAINH0  41  57
PAINI0  36  54
PAINJ0  39  54
PAINK0  46  71
PAINL0  43  71
PAINM0  49  88
BSPIA1D1  54  50
BSPIA2A8  59  51
BSPIA3A7  53  49
BSPIA4A6  57  52
BSPIA5D5  53  47
BSPIB1E1  63  49
BSPIB2B8  65  50
BSPIB3B7  55  46
BSPIB4B6  57  45
BSPIB5E5  56  47
BSPIC1F1  51  49
BSPIC2C8  64  51
BSPIC3C7  53  49
BSPIC4C6  59  51
BSPIC5F5  52  47
BSPID2D8  51  51
BSPID3D7  51  50
BSPID4D6  56  50
BSPIE2E8  51  45
BSPIE3E7  63  48
BSPIE4E6  65  50
BSPIF2F8  54  52
BSPIF3F7  62  48
BSPIF4F6  55  51
BSPIG1  50  48
BSPIG2G8  61  50
BSPIG3G7  56  50
BSPIG4G6  62  52
BSPIG5  56  49
BSPIH1  50  48
BSPIH2H8  61  50
BSPIH3H7  56  50
BSPIH4H6  62  52
BSPIH5  56  49
BSPII1  47  47
BSPII2  56  51
BSPII3  59  49
BSPII4  58  52
BSPII5  54  49
BSPII6  56  51
BSPII7  50  48
BSPII8  60  49
BSPIJ0  50  50
BSPIK0  50  53
BSPIL0  47  48
BSPIM0  45  42
BSPIN0  45  40
BSPIO0  45  28
BSPIP0  45  26
BOS2A1C1  19  69
BOS2A2C8  20  68
BOS2A3C7  26  66
BOS2A4C6  22  64
BOS2A5C5  19  65
BOS2A6C4  21  64
BOS2A7C3  25  66
BOS2A8C2  24  69
BOS2B1D1  23  72
BOS2B2D8  21  70
BOS2B3D7  19  69
BOS2B4D6  24  67
BOS2B5D5  24  66
BOS2B6D4  18  66
BOS2B7D3  21  69
BOS2B8D2  21  71
BOS2E1  30  65
BOS2E2  12  67
BOS2E3  30  62
BOS2E4  27  63
BOS2E5  28  69
BOS2E6  22  73
BOS2E7  20  73
BOS2E8  30  74
BOS2F1  34  65
BOS2F2  29  65
BOS2F3  29  64
BOS2F4  30  64
BOS2F5  28  62
BOS2F6  29  63
BOS2F7  21  64
BOS2F8  26  65
BOS2G1  14  59
BOS2G2  29  59
BOS2G3  26  58
BOS2G4  25  56
BOS2G5  30  55
BOS2G6  24  55
BOS2G7  22  57
BOS2G8  28  56
BOS2H1  23  69
BOS2H2  26  68
BOS2H3  25  67
BOS2H4  26  64
BOS2H5  22  62
BOS2H6  15  62
BOS2H7  17  66
BOS2H8  18  68
BOS2I0  20  69
BOS2J0  26  60
BOS2K0  26  50
BOS2L0  29  32
BOS2M0  30  26
BOS2N0  30  26
BOS2O0  30  26
SKELA1D1  16  76
SKELA2D8  26  77
SKELA3D7  34  73
SKELA4D6  33  70
SKELA5D5  13  71
SKELA6D4  24  72
SKELA7D3  35  71
SKELA8D2  32  74
SKELB1E1  27  81
SKELB2E8  26  81
SKELB3E7  23  78
SKELB4E6  22  77
SKELB5E5  19  74
SKELB6E4  26  75
SKELB7E3  25  76
SKELB8E2  24  78
SKELC1F1  30  83
SKELC2F8  24  88
SKELC3F7  12  86
SKELC4F6  26  83
SKELC5F5  28  81
SKELC6F4  21  79
SKELC7F3  19  80
SKELC8F2  29  84
SKELG1  25  67
SKELG2  25  69
SKELG3  33  68
SKELG4  37  72
SKELG5  31  72
SKELG6  26  70
SKELG7  36  67
SKELG8  37  68
SKELH1  30  78
SKELH2  35  78
SKELH3  30  77
SKELH4  20  76
SKELH5  24  76
SKELH6  37  72
SKELH7  36  74
SKELH8  23  76
SKELI1  20  61
SKELI2  31  62
SKELI3  36  60
SKELI4  29  60
SKELI5  14  60
SKELI6  28  59
SKELI7  39  59
SKELI8  29  61
SKELJ1  25  67
SKELJ2  21  67
SKELJ3  27  67
SKELJ4  29  64
SKELJ5  24  64
SKELJ6  23  63
SKELJ7  19  64
SKELJ8  26  64
SKELK1  27  76
SKELK2  23  75
SKELK3  23  74
SKELK4  20  75
SKELK5  27  75
SKELK6  27  75
SKELK7  18  75
SKELK8  17  75
SKELL1  31  68
SKELL2  18  67
SKELL3  24  67
SKELL4  34  68
SKELL5  32  69
SKELL6  21  68
SKELL7  25  68
SKELL8  33  69
SKELM0  27  74
SKELN0  38  65
SKELO0  28  51
SKELP0  28  33
SKELQ0  40  19
BOSSA1  
BOSSA2A8
BOSSA3A7
BOSSA4A6
BOSSA5  
BOSSB1  
BOSSB2B8
BOSSB3B7
BOSSB4B6
BOSSB5  
BOSSC1  
BOSSC2C8
BOSSC3C7
BOSSC4C6
BOSSC5  
BOSSD1  
BOSSD2D8
BOSSD3D7
BOSSD4D6
BOSSD5
BOSSE1
BOSSE2
BOSSE3
BOSSE4
BOSSE5
BOSSE6
BOSSE7
BOSSE8
BOSSF1
BOSSF2
BOSSF3
BOSSF4
BOSSF5
BOSSF6
BOSSF7
BOSSF8
BOSSG1
BOSSG2
BOSSG3
BOSSG4
BOSSG5
BOSSG6
BOSSG7
BOSSG8
BOSSH1
BOSSH2
BOSSH3
BOSSH4
BOSSH5
BOSSH6
BOSSH7
BOSSH8
BOSSI0
BOSSJ0
BOSSK0
BOSSL0
BOSSM0
BOSSN0
BOSSO0
BAL7A1A5  10  8
BAL7A2A8  18  7
BAL7A3A7  22  7
BAL7A4A6  18  6
BAL7B1B5  10  8
BAL7B2B8  18  7
BAL7B3B7  22  7
BAL7B4B6  18  6
BAL7C0  20  5
BAL7D0  23  6
BAL7E0  23  8
FATTA1  39  60
FATTA2A8  39  61
FATTA3A7  38  60
FATTA4A6  39  57
FATTA5  39  59
FATTB1  43  65
FATTB2B8  43  65
FATTB3B7  43  61
FATTB4B6  42  61
FATTB5  43  58
FATTC1  43  65
FATTC2C8  43  63
FATTC3C7  39  61
FATTC4C6  35  61
FATTC5  36  58
FATTD1  38  60
FATTD2D8  43  63
FATTD3D7  43  62
FATTD4D6  43  59
FATTD5  35  58
FATTE1  43  65
FATTE2E8  43  61
FATTE3E7  43  62
FATTE4E6  43  58
FATTE5  40  57
FATTF1  42  65
FATTF2F8  43  62
FATTF3F7  43  61
FATTF4F6  43  59
FATTF5  39  58
FATTG1  42  60
FATTG2G8  51  59
FATTG3G7  43  60
FATTG4G6  43  62
FATTG5  42  61
FATTH1  42  60
FATTH2H8  50  59
FATTH3H7  33  61
FATTH4H6  42  61
FATTH5  42  60
FATTI1  42  63
FATTI2I8  51  64
FATTI3I7  43  59
FATTI4I6  42  63
FATTI5  39  59
FATTJ1  32  62
FATTJ2  47  62
FATTJ3  39  59
FATTJ4  30  61
FATTJ5  32  59
FATTJ6  29  61
FATTJ7  37  59
FATTJ8  46  62
FATTK0  50  73
FATTL0  50  75
FATTM0  45  66
FATTN0  37  53
FATTO0  35  41
FATTP0  36  40
FATTQ0  36  39
FATTR0  36  39
FATTS0  36  38
FATTT0  36  36
FATBA1  9 11
FATBA2A8  18  10
FATBA3A7  22  9
FATBA4A6  18  9
FATBA5  9 11
FATBB1  9 11
FATBB2B8  18  10
FATBB3B7  21  9
FATBB4B6  18  9
FATBB5  9 11
FBXPA0  19  32
FBXPB0  19  31
FBXPC0  22  35
SSWVA1  13  51
SSWVA2  14  50
SSWVA3  17  50
SSWVA4  18  50
SSWVA5  15  50
SSWVA6  16  51
SSWVA7  19  50
SSWVA8  10  51
SSWVB1  14  52
SSWVB2  12  51
SSWVB3  14  51
SSWVB4  12  51
SSWVB5  15  51
SSWVB6  9 52
SSWVB7  12  51
SSWVB8  11  52
SSWVC1  13  49
SSWVC2  14  50
SSWVC3  17  50
SSWVC4  14  50
SSWVC5  14  49
SSWVC6  12  49
SSWVC7  15  49
SSWVC8  11  48
SSWVD1  14  52
SSWVD2  12  51
SSWVD3  15  51
SSWVD4  12  51
SSWVD5  15  51
SSWVD6  9 52
SSWVD7  13  51
SSWVD8  12  51
SSWVE0  17  50
SSWVF0  17  50
SSWVG0  17  50
SSWVH0  17  48
SSWVI0  18  49
SSWVJ0  15  41
SSWVK0  15  38
SSWVL0  15  23
SSWVM0  24  11
SSWVN0  15  54
SSWVO0  22  57
SSWVP0  25  57
SSWVQ0  24  51
SSWVR0  27  45
SSWVS0  24  37
SSWVT0  24  30
SSWVU0  24  20
SSWVV0  24  15
CYBRA1  38  103
CYBRA2  45  103
CYBRA3  38  104
CYBRA4  32  106
CYBRA5  41  106
CYBRA6  41  105
CYBRA7  41  105
CYBRA8  41  105
CYBRB1  43  106
CYBRB2  36  105
CYBRB3  29  105
CYBRB4  42  107
CYBRB5  42  107
CYBRB6  36  107
CYBRB7  30  106
CYBRB8  40  107
CYBRC1  39  105
CYBRC2  38  105
CYBRC3  38  104
CYBRC4  46  106
CYBRC5  39  106
CYBRC6  40  106
CYBRC7  34  107
CYBRC8  50  107
CYBRD1  43  106
CYBRD2  36  106
CYBRD3  29  106
CYBRD4  42  107
CYBRD5  42  107
CYBRD6  36  107
CYBRD7  30  107
CYBRD8  39  107
CYBRE1  46  105
CYBRE2  35  105
CYBRE3  52  105
CYBRE4  50  104
CYBRE5  42  105
CYBRE6  39  105
CYBRE7  46  105
CYBRE8  55  105
CYBRF1  46  105
CYBRF2  46  105
CYBRF3  60  105
CYBRF4  59  104
CYBRF5  46  105
CYBRF6  47  105
CYBRF7  54  105
CYBRF8  63  105
CYBRG1  61  105
CYBRG2  46  106
CYBRG3  43  105
CYBRG4  58  105
CYBRG5  54  104
CYBRG6  46  105
CYBRG7  47  105
CYBRG8  48  104
CYBRH0  60  106
CYBRI0  55  108
CYBRJ0  49  111
CYBRK0  56  112
CYBRL0  62  119
CYBRM0  67  126
CYBRN0  70  129
CYBRO0  69  129
CYBRP0  60  25
SPIDA1D1  107 105
SPIDA2A8  110 107
SPIDA3A7  99  106
SPIDA4A6  111 111
SPIDA5D5  109 102
SPIDB1E1  130 104
SPIDB2B8  130 106
SPIDB3B7  101 99
SPIDB4B6  110 99
SPIDB5E5  111 100
SPIDC1F1  108 103
SPIDC2C8  129 107
SPIDC3C7  103 105
SPIDC4C6  114 110
SPIDC5F5  107 101
SPIDD2D8  113 107
SPIDD3D7  99  103
SPIDD4D6  107 106
SPIDE2E8  113 94
SPIDE3E7  122 101
SPIDE4E6  128 106
SPIDF2F8  114 109
SPIDF3F7  122 102
SPIDF4F6  114 106
SPIDG1  95  101
SPIDG2G8  123 107
SPIDG3G7  113 108
SPIDG4G6  120 112
SPIDG5  106 105
SPIDH1  95  101
SPIDH2H8  123 108
SPIDH3H7  113 108
SPIDH4H6  120 112
SPIDH5  106 105
SPIDI1  102 102
SPIDI2  112 105
SPIDI3  122 100
SPIDI4  116 106
SPIDI5  95  100
SPIDI6  106 107
SPIDI7  88  102
SPIDI8  115 105
SPIDJ0  79  99
SPIDK0  95  92
SPIDL0  94  84
SPIDM0  94  73
SPIDN0  98  69
SPIDO0  101 65
SPIDP0  104 82
SPIDQ0  109 87
SPIDR0  110 108
SPIDS0  98  31
VILEA1D1  14  71
VILEA2D8  30  69
VILEA3D7  41  68
VILEA4D6  31  67
VILEA5D5  11  65
VILEA6D4  30  66
VILEA7D3  36  67
VILEA8D2  35  70
VILEB1E1  25  73
VILEB2E8  30  72
VILEB3E7  26  71
VILEB4E6  22  67
VILEB5E5  18  67
VILEB6E4  25  67
VILEB7E3  31  70
VILEB8E2  23  72
VILEC1F1  23  74
VILEC2F8  21  72
VILEC3F7  22  72
VILEC4F6  26  71
VILEC5F5  25  68
VILEC6F4  22  70
VILEC7F3  21  72
VILEC8F2  25  74
VILEG1  35  89
VILEG2  27  91
VILEG3  36  97
VILEG4  39  97
VILEG5  40  99
VILEG6  30  99
VILEG7  28  98
VILEG8  39  91
VILEH1  39  92
VILEH2  28  93
VILEH3  36  99
VILEH4  43  99
VILEH5  41  99
VILEH6  31  99
VILEH7  29  99
VILEH8  41  92
VILEI1  39  93
VILEI2  28  94
VILEI3  36  99
VILEI4  43  99
VILEI5  41  101
VILEI6  32  99
VILEI7  30  99
VILEI8  41  93
VILEJ1  31  76
VILEJ2  21  80
VILEJ3  27  82
VILEJ4  35  82
VILEJ5  31  84
VILEJ6  18  85
VILEJ7  32  80
VILEJ8  34  78
VILEK1  31  59
VILEK2  21  61
VILEK3  24  61
VILEK4  35  58
VILEK5  23  60
VILEK6  19  59
VILEK7  27  59
VILEK8  30  59
VILEL1  31  56
VILEL2  20  58
VILEL3  28  58
VILEL4  35  56
VILEL5  27  57
VILEL6  19  57
VILEL7  27  56
VILEL8  30  57
VILEM1  31  56
VILEM2  20  58
VILEM3  28  58
VILEM4  35  56
VILEM5  27  57
VILEM6  15  57
VILEM7  27  56
VILEM8  30  57
VILEN1  30  64
VILEN2  35  65
VILEN3  51  64
VILEN4  43  61
VILEN5  27  64
VILEN6  26  63
VILEN7  45  63
VILEN8  48  63
VILEO1  30  75
VILEO2  34  71
VILEO3  51  65
VILEO4  43  62
VILEO5  27  64
VILEO6  26  63
VILEO7  45  63
VILEO8  48  66
VILEP1  30  85
VILEP2  34  83
VILEP3  51  85
VILEP4  42  77
VILEP5  27  77
VILEP6  26  77
VILEP7  45  76
VILEP8  48  79
VILEQ1  18  69
VILEQ2  22  69
VILEQ3  32  67
VILEQ4  27  69
VILEQ5  18  70
VILEQ6  24  68
VILEQ7  30  68
VILEQ8  33  66
VILER0  18  75
VILES0  23  71
VILET0  27  66
VILEU0  35  54
VILEV0  34  43
VILEW0  34  33
VILEX0  34  21
VILEY0  34  18
VILEZ0  34  18
VILE[1  53  68
VILE[2  49  69
VILE[3  26  72
VILE[4  37  71
VILE[5  44  71
VILE[6  43  73
VILE[7  30  73
VILE[8  36  73
VILE\1  53  69
VILE\2  49  70
VILE\3  26  73
VILE\4  37  71
VILE\5  44  72
VILE\6  43  74
VILE\7  30  72
VILE\8  32  73
VILE]1  53  68
VILE]2  49  69
VILE]3  26  71
VILE]4  37  70
VILE]5  44  70
VILE]6  43  72
VILE]7  30  74
VILE]8  32  71
FIREA0  15  25
FIREB0  18  41
FIREC0  22  64
FIRED0  22  80
FIREE0  20  96
FIREF0  20  109
FIREG0  11  115
FIREH0  6 109
POL5A0  27  5
CANDA0  8 15
CBRAA0  15  57
SHOTA0  31  17
MGUNA0  25  18
LAUNA0  31  18
CSAWA0  31  23
CLIPA0  2 11
SHELA0  5 7
ROCKA0  6 27
STIMA0  7 15
MEDIA0  13  19
ARM1A0  15  17
ARM1B0  15  17
ARM2A0  15  17
ARM2B0  15  17
BAR1A0  10  28
BAR1B0  10  28
COLUA0  9 43
BPAKA0  8 25
BROKA0  27  20
AMMOA0  12  16
SBOXA0  16  12
ELECA0  19  123
BKEYA0  7 19
BKEYB0  7 19
YKEYA0  8 19
YKEYB0  8 19
RKEYA0  8 19
RKEYB0  8 19
SUITA0  11  51
PVISA0  13  9
PVISB0  13  9
BBRNA0  30  82
BBRNB0  30  81
BEXPA0  10  28
BEXPB0  10  27
BEXPC0  19  32
BEXPD0  27  46
BEXPE0  29  49
PMAPA0  13  23
PMAPB0  13  23
PMAPC0  13  23
PMAPD0  13  23
PINSA0  11  39
PINSB0  11  39
PINSC0  11  39
PINSD0  11  39
BON1A0  7 14
BON1B0  7 14
BON1C0  7 14
BON1D0  7 14
SOULA0  14  39
SOULB0  14  39
SOULC0  14  39
SOULD0  14  39
BON2A0  7 13
BON2B0  7 13
BON2C0  7 13
BON2D0  7 13
SGN2A0  27  15
TREDA0  14  92
TREDB0  14  87
TREDC0  14  87
TREDD0  14  93
POL1A0  22  62
POL2A0  19  62
POL3A0  19  38
POL3B0  19  38
POL4A0  19  51
POL6A0  17  62
POL6B0  19  62
COL1A0  16  48
COL2A0  16  35
COL3A0  16  48
COL4A0  17  35
COL5A0  16  40
COL5B0  16  41
FSKUA0  16  49
FSKUB0  16  49
FSKUC0  16  49
COL6A0  17  44
CEYEA0  21  56
CEYEB0  21  55
CEYEC0  21  56
TRE1A0  25  65
SMITA0  22  43
SMT2A0  15  43
BSKUA0  7 18
BSKUB0  7 18
RSKUA0  7 18
RSKUB0  7 18
YSKUA0  7 18
YSKUB0  7 18
TRE2A0  63  120
PLASA0  27  19
BFUGA0  31  38
CELLA0  8 12
PSTRA0  12  15
CELPA0  15  20
GOR1A0  17  67
GOR1B0  18  67
GOR1C0  17  67
GOR2A0  22  83
GOR3A0  19  83
GOR4A0  6 67
GOR5A0  6 51
TGRNA0  14  92
TGRNB0  14  87
TGRNC0  14  87
TGRND0  14  93
TBLUA0  14  92
TBLUB0  14  92
TBLUC0  14  92
TBLUD0  14  93
SMRTA0  10  172
SMRTB0  10  167
SMRTC0  10  167
SMRTD0  10  173
SMBTA0  10  72
SMBTB0  10  67
SMBTC0  10  67
SMBTD0  10  73
SMGTA0  10  72
SMGTB0  10  67
SMGTC0  10  67
SMGTD0  10  73
PINVA0  11  23
PINVB0  11  23
PINVC0  11  23
PINVD0  11  23
FCANA0  19  49
FCANB0  19  49
FCANC0  19  47
MEGAA0  12  32
MEGAB0  12  32
MEGAC0  12  32
MEGAD0  12  32
HDB1A0  10  83
HDB2A0  10  83
HDB3A0  10  59
HDB4A0  10  59
HDB5A0  10  59
HDB6A0  10  59
POB1A0  16  2
POB2A0  14  -2
BRS1A0  13  3
KEENA0  6 67
KEENB0  8 67
KEENC0  9 67
KEEND0  11  67
KEENE0  13  67
KEENF0  13  67
KEENG0  14  67
KEENH0  17  67
KEENI0  17  67
KEENJ0  17  67
KEENK0  17  67
KEENL0  17  67
KEENM0  8 67
TLMPA0  11  77
TLMPB0  11  77
TLMPC0  11  77
TLMPD0  11  77
TLP2A0  10  57
TLP2B0  10  57
TLP2C0  10  57
TLP2D0  10  57
CHGGA0  -77 -112
CHGGB0  -77 -114
CHGFA0  -77 -100
CHGFB0  -77 -110
SAWGA0  -59 -90
SAWGB0  -59 -90
SAWGC0  -59 -88
SAWGD0  -59 -90
PISGA0  -63 -115
PISGB0  -63 -115
PISGC0  -63 -115
PISGD0  -67 -111
PISGE0  -63 -115
PISFA0  -107  -107
BAL1A0  6 6
BAL1B0  6 6
BAL1C0  10  10
BAL1D0  12  11
BAL1E0  18  14
PUFFA0  5 4
PUFFB0  6 7
PUFFC0  5 4
PUFFD0  5 5
BLUDA0  0 0
BLUDB0  0 0
BLUDC0  0 0
MISLB0  26  20
MISLC0  26  16
MISLD0  12  9
TFOGA0  6 44
TFOGB0  8 53
TFOGC0  8 60
TFOGD0  10  61
TFOGE0  14  60
TFOGF0  14  60
TFOGG0  10  60
TFOGH0  5 60
TFOGI0  5 60
TFOGJ0  4 43
IFOGA0  18  33
IFOGB0  16  26
IFOGC0  6 15
IFOGD0  2 10
IFOGE0  0 7
APLSA0  7 10
APLSB0  6 8
APBXA0  12  15
APBXB0  19  18
APBXC0  17  17
APBXD0  10  13
APBXE0  4 6
PUNGA0  -74 -85
PUNGB0  -74 -96
PUNGC0  -74 -101
PUNGD0  -72 -92
MISGA0  -180  -96
MISGB0  -180  -97
MISFA0  -186  -141
MISFB0  -186  -141
MISFC0  -187  -141
MISFD0  -187  -141
MISLA1  7 12
MISLA8A2  16  11
MISLA7A3  25  12
MISLA6A4  12  12
MISLA5  -1  6
SHTGA0  -59 -110
SHTGB0  -59 -110
SHTGC0  -59 -110
SHTGD0  -59 -110
SHTFA0  -58 -106
SHTFB0  -60 -98
PLSGA0  -84  -100
PLSGB0  -84  -82
PLSFA0  -84  -94
PLSFB0  -84  -95
PLSSA0  10  8
PLSSB0  10  8
PLSEA0  0 22
PLSEB0  0 23
PLSEC0  11  31
PLSED0  0 20
PLSEE0  3 20
BFGGA0  -81 -116
BFGGB0  -81 -116
BFGGC0  -81 -116
BFGFA0  -127  -108
BFGFB0  -126  -96
BFS1A0  22  23
BFS1B0  22  23
BFE1A0  38  46
BFE1B0  58  53
BFE1C0  72  53
BFE1D0  69  71
BFE1E0  69  37
BFE1F0  68  12
BFE2A0  35  48
BFE2B0  18  43
BFE2C0  17  37
BFE2D0  5 20
SARGA1  26  70
SARGA2A8  25  70
SARGA3A7  28  70
SARGA4A6  24  70
SARGA5  25  70
SARGB1  28  70
SARGB2B8  24  70
SARGB3B7  27  70
SARGB4B6  24  70
SARGB5  27  70
SARGC1  24  70
SARGC2C8  20  70
SARGC3C7  22  70
SARGC4C6  20  70
SARGC5  27  70
SARGD1  26  70
SARGD2D8  24  70
SARGD3D7  28  70
SARGD4D6  23  70
SARGD5  28  70
SARGE1  26  70
SARGE5  24  70
SARGF1  28  70
SARGF5  26  70
SARGG1  29  70
SARGG5  28  70
SARGH1  26  70
SARGH5  26  70
SARGI0  25  70
SARGJ0  27  70
SARGK0  28  70
SARGL0  24  70
SARGM0  15  70
SARGN0  15  70
TROOA1  20  57
TROOA2A8  18  58
TROOA3A7  22  56
TROOA4A6  16  57
TROOA5  20  58
TROOB1  20  56
TROOB2B8  16  57
TROOB3B7  20  57
TROOB4B6  17  57
TROOB5  20  58
TROOC1  20  57
TROOC2C8  18  57
TROOC3C7  22  56
TROOC4C6  17  56
TROOC5  20  58
TROOD1  21  56
TROOD2D8  16  58
TROOD3D7  20  57
TROOD4D6  17  57
TROOD5  20  57
TROOE1  22  57
TROOE2E8  16  58
TROOE3E7  19  57
TROOE4E6  16  57
TROOE5  21  58
TROOF1  22  57
TROOF2F8  16  58
TROOF3F7  19  57
TROOF4F6  17  57
TROOF5  21  58
TROOG1  25  57
TROOG2G8  19  58
TROOG3G7  32  57
TROOG4G6  23  57
TROOG5  26  58
TROOH1  20  60
TROOH2H8  18  58
TROOH3H7  22  56
TROOH4H6  22  59
TROOH5  24  58
TROOI0  24  56
TROOJ0  23  61
TROOK0  15  60
TROOL0  7 54
TROOM0  5 4
TROON0  20  59
TROOO0  23  60
TROOP0  23  61
TROOQ0  23  62
TROOR0  20  61
TROOS0  14  57
TROOT0  9 50
TROOU0  2 1
BOSSA1  88  105
BOSSA2A8  88  105
BOSSA3A7  88  105
BOSSA4A6  88  105
BOSSA5  88  105
BOSSB1  88  105
BOSSB2B8  88  105
BOSSB3B7  88  105
BOSSB4B6  88  105
BOSSB5  88  105
BOSSC1  88  105
BOSSC2C8  88  105
BOSSC3C7  88  105
BOSSC4C6  88  105
BOSSC5  88  105
BOSSD1  88  105
BOSSD2D8  88  105
BOSSD3D7  88  105
BOSSD4D6  88  105
BOSSD5  88  105
BOSSE1  88  105
BOSSE2  88  105
BOSSE3  88  105
BOSSE4  88  105
BOSSE5  88  105
BOSSE6  88  105
BOSSE7  88  105
BOSSE8  88  105
BOSSF1  88  105
BOSSF2  88  105
BOSSF3  88  105
BOSSF4  88  105
BOSSF5  88  105
BOSSF6  88  105
BOSSF7  88  105
BOSSF8  88  105
BOSSG1  88  105
BOSSG2  88  105
BOSSG3  88  105
BOSSG4  88  105
BOSSG5  88  105
BOSSG6  88  105
BOSSG7  88  105
BOSSG8  88  105
BOSSH1  88  105
BOSSH2  88  105
BOSSH3  88  105
BOSSH4  88  105
BOSSH5  88  105
BOSSH6  88  105
BOSSH7  88  105
BOSSH8  88  105
BOSSI0  88  105
BOSSJ0  72  98
BOSSK0  34  89
BOSSL0  33  85
BOSSM0  28  85
BOSSN0  18  76
BOSSO0  11  20
BAL7A1A5  9 9
BAL7A2A8  12  9
BAL7A3A7  14  9
BAL7A4A6  12  9
BAL7B1B5  9 9
BAL7B2B8  12  9
BAL7B3B7  14  9
BAL7B4B6  12  9
BAL7C0  12  11
BAL7D0  14  14
BAL7E0  19  19
PLAYA1  23  49
PLAYA2A8  30  52
PLAYA3A7  22  49
PLAYA4A6  26  53
PLAYA5  24  49
PLAYB1  24  52
PLAYB2B8  22  54
PLAYB3B7  11  50
PLAYB4B6  18  55
PLAYB5  24  51
PLAYC1  24  50
PLAYC2C8  22  53
PLAYC3C7  21  49
PLAYC4C6  26  54
PLAYC5  24  49
PLAYD1  24  52
PLAYD2D8  22  53
PLAYD3D7  10  50
PLAYD4D6  16  55
PLAYD5  24  51
PLAYE1  26  51
PLAYE2E8  18  53
PLAYE3E7  22  51
PLAYE4E6  26  54
PLAYE5  26  51
PLAYF1  26  51
PLAYF2F8  23  53
PLAYF3F7  28  50
PLAYF4F6  28  54
PLAYF5  26  51
PLAYG1  24  51
PLAYG2G8  30  53
PLAYG3G7  18  51
PLAYG4G6  26  55
PLAYG5  28  52
PLAYH0  30  52
PLAYI0  30  51
PLAYJ0  30  48
PLAYK0  30  42
PLAYL0  29  37
PLAYM0  28  35
PLAYN0  29  36
PLAYO0  30  52
PLAYP0  30  51
PLAYQ0  30  48
PLAYR0  30  42
PLAYS0  29  37
PLAYT0  28  35
PLAYU0  28  35
PLAYV0  29  36
PLAYW0  29  36
POSSA1  18  50
POSSA2A8  21  49
POSSA3A7  27  49
POSSA4A6  18  47
POSSA5  15  50
POSSB1  16  50
POSSB2B8  21  49
POSSB3B7  27  49
POSSB4B6  18  47
POSSB5  14  50
POSSC1  15  49
POSSC2C8  21  49
POSSC3C7  27  50
POSSC4C6  19  49
POSSC5  14  50
POSSD1  15  49
POSSD2D8  21  49
POSSD3D7  27  50
POSSD4D6  18  50
POSSD5  14  50
POSSE1  16  50
POSSE2E8  23  49
POSSE3E7  26  48
POSSE4E6  19  48
POSSE5  13  48
POSSF1  16  50
POSSF2F8  24  50
POSSF3F7  29  47
POSSF4F6  19  48
POSSF5  13  48
POSSG1  18  50
POSSG2G8  22  49
POSSG3G7  27  50
POSSG4G6  19  50
POSSG5  20  50
SPOSA1  16  55
SPOSA2A8  18  55
SPOSA3A7  22  53
SPOSA4A6  16  55
SPOSA5  16  55
SPOSB1  16  54
SPOSB2B8  18  55
SPOSB3B7  16  54
SPOSB4B6  20  55
SPOSB5  15  54
SPOSC1  16  55
SPOSC2C8  20  55
SPOSC3C7  22  53
SPOSC4C6  16  54
SPOSC5  15  55
SPOSD1  16  53
SPOSD2D8  15  55
SPOSD3D7  18  54
SPOSD4D6  16  55
SPOSD5  15  54
SPOSE1  18  55
SPOSE2E8  18  55
SPOSE3E7  23  53
SPOSE4E6  18  55
SPOSE5  19  55
SPOSF1  22  55
SPOSF2F8  23  55
SPOSF3F7  30  53
SPOSF4F6  22  55
SPOSF5  23  55
SPOSG1  20  55
SPOSG2G8  18  55
SPOSG3G7  23  53
SPOSG4G6  19  55
SPOSG5  18  54
SPOSH0  18  55
SPOSI0  18  52
SPOSJ0  20  62
SPOSK0  10  53
SPOSL0  10  19
SPOSM0  16  55
SPOSN0  19  55
SPOSO0  20  58
SPOSP0  20  61
SPOSQ0  19  59
SPOSR0  19  53
SPOSS0  13  47
SPOST0  8 37
SPOSU0  10  19
POL5A0  27  5
CANDA0  8 128
CBRAA0  11  44
SHOTA0  16  38
MGUNA0  22  32
LAUNA0  24  24
CSAWA0  8 40
CLIPA0  7 9
SHELA0  16  16
ROCKA0  16  14
STIMA0  16  16
MEDIA0  14  15
ARM1A0  19  36
ARM1B0  19  36
ARM2A0  19  36
ARM2B0  19  36
BAR1A0  11  44
BAR1B0  11  44
COLUA0  6 36
BPAKA0  11  29
BROKA0  24  25
AMMOA0  24  19
SBOXA0  24  22
ELECA0  65  53
BKEYA0  7 20
BKEYB0  7 20
YKEYA0  8 20
YKEYB0  8 20
RKEYA0  8 20
RKEYB0  8 20
SUITA0  22  41
PVISA0  13  9
PVISB0  13  9
BEXPA0  11  44
BEXPB0  11  44
BEXPC0  11  44
BEXPD0  27  46
BEXPE0  29  49
PMAPA0  13  23
PMAPB0  13  23
PMAPC0  13  23
PMAPD0  13  23
PINSA0  11  39
PINSB0  11  39
PINSC0  11  39
PINSD0  11  39
BON1A0  8 12
BON1B0  8 12
BON1C0  8 12
BON1D0  8 12
SOULA0  16  18
SOULB0  16  18
SOULC0  16  18
SOULD0  16  18
BON2A0  8 12
BON2B0  8 12
BON2C0  8 12
BON2D0  8 12
TREDA0  14  92
TREDB0  14  87
TREDC0  14  87
TREDD0  14  93
POL1A0  16  40
POL2A0  20  55
POL3A0  19  38
POL3B0  19  38
POL4A0  22  40
POL6A0  17  62
POL6B0  19  62
COL1A0  21  70
COL2A0  15  40
COL3A0  25  123
COL4A0  26  32
COL5A0  16  40
COL5B0  16  41
FSKUA0  16  49
FSKUB0  16  49
FSKUC0  16  49
COL6A0  7 122
CEYEA0  24  59
CEYEB0  24  59
CEYEC0  24  59
TRE1A0  48  111
SMITA0  50  115
SMT2A0  50  114
TRE2A0  32  113
PLASA0  26  17
BFUGA0  24  21
CELLA0  10  13
PSTRA0  12  15
CELPA0  21  15
GOR1A0  8 60
GOR1B0  11  60
GOR1C0  8 60
GOR2A0  24  85
GOR3A0  30  80
GOR4A0  6 67
GOR5A0  18  44
TGRNA0  28  60
TGRNB0  28  60
TGRNC0  28  60
TGRND0  28  60
TBLUA0  18  45
TBLUB0  19  52
TBLUC0  20  51
TBLUD0  19  53
SMRTA0  30  51
SMRTB0  30  51
SMRTC0  30  51
SMRTD0  30  51
SMBTA0  15  85
SMBTB0  15  85
SMBTC0  15  85
SMBTD0  15  85
SMGTA0  27  60
SMGTB0  27  60
SMGTC0  27  60
SMGTD0  27  60
FCANA0  28  60
FCANB0  28  60
FCANC0  28  60
SARGE2E8  25  70
SARGE3E7  30  70
SARGE4E6  26  70
SARGF2F8  25  70
SARGF3F7  28  70
SARGF4F6  27  70
SARGG2G8  30  70
SARGG3G7  34  70
SARGG4G6  34  70
SARGH2H8  28  70
SARGH3H7  28  70
SARGH4H6  26  70
POSSH0M0  18  52
POSSI0N0  20  55
POSSJ0O0  20  56
POSSK0P0  18  48
POSSL0Q0  19  14
POSSR0S0  20  14
POSST0U0  20  14

# List of patches
[patches]
BRICK_RED_1
SW18_7
WALL00_1
WALL00_2
WALL00_3
WALL00_5
WALL00_6
WALL00_7
WALL00_8
WALL01_1
WALL01_2
WALL01_3
WALL01_4
WALL01_5
WALL01_6
WALL01_7
WALL01_8
WALL01_9
WALL01_A
WALL01_B
WALL01_C
WALL02_1
WALL02_2
WALL02_3
WALL03_1
WALL03_4
WALL03_7
WALL04_2
WALL04_3
WALL04_4
WALL04_5
WALL04_7
WALL05_2
W13_1
W13_8
W13_A
W15_4
W15_5
W17_1
WALL24_1
W28_5
W28_6
W28_7
W28_8
W31_1
W32_1
W32_4
W33_5
W33_7
W33_8
W46_37
W46_38
W46_39
WALL57_1
WALL57_2
WALL57_3
WALL57_4
WALL62_1
WALL62_2
W94_1
W111_2
W111_3
W112_1
W112_2
W112_3
W113_1
W113_2
W113_3
SW11_1
SW11_2
SW11_4
SW11_5
SW12_1
SW12_2
SW12_4
SW12_5
SW19_1
SW19_2
SW19_3
SW19_4
SW17_4
SW17_5
SW17_6
T14_5
AG128_1
AG128_2
AGB128_1
WLA128_1
SUPPORT2
TOMW2_1
TOMW2_2
STEP03
STEP04
STEP05
STEP06
STEP07
STEP08
STEP09
STEP10
EXIT1
EXIT2
PLAT2_1
TTALL1_2
TP2_1
TP2_2
COMP01_1
COMP01_5
COMP01_6
COMP1B_4
COMP1C_6
COMP02_1
COMP02_2
COMP02_3
COMP02_4
COMP02_5
COMP02_6
COMP02_7
COMP02_8
COMP03_1
COMP03_4
COMP03_5
COMP03_6
COMP03_7
COMP03_8
COMP03_9
COMP04_1
COMP04_2
COMP04_5
COMP04_6
COMP04_7
COMP04_8
DOOR2_1
DOOR2_4
DOOR2_5
DOOR3_4
DOOR3_5
DOOR3_6
DOORTRAK
DOOR9_1
WARNA0
WARNB0
BLITA0
BLITB0
BLITC0
WLITA0
WLITB0
WLITC0
NUKEDGE
FLAMP
TSCRN2
TSCRN3
TSCRN4
TSCRN5
TSCRN6
TSCRN8
PS20A0
SW1S0
SW1S1
SW2S0
SW2S1
SW3S0
SW3S1
SW4S0
SW4S1
SKY1
WALL22_1
WALL23_1
WALL23_2
WALL25_1
WALL30_2
WALL30_3
WALL30_4
WALL40_1
WALL40_2
WALL42_1
WALL42_3
WALL42_5
WALL42_6
WALL47_1
WALL47_2
WALL47_3
WALL47_4
WALL47_5
WALL48_1
WALL48_2
WALL48_3
WALL48_4
WALL49_1
WALL49_2
WALL49_3
WALL49_4
WALL50_1
WALL50_2
WALL51_1
WALL51_2
WALL51_3
WALL52_1
WALL52_2
WALL53_1
WALL54_1
WALL54_2
WALL55_1
WALL58_1
WALL58_2
WALL58_3
WALL59_1
WALL59_2
WALL59_3
WALL59_4
WALL63_1
WALL63_2
WALL64_2
W64B_1
W64B_2
W65B_1
W65B_2
W67_1
W67_2
WALL69_4
WALL69_9
WALL70_2
WALL70_3
WALL70_4
WALL70_9
WALL71_5
WALL72_3
WALL72_5
WALL72_7
W73A_1
W73A_2
W73B_1
W74A_1
W74A_2
W74B_1
WALL76_1
WALL78_1
WALL79_1
W92_1
W92_2
W96_1
W96_2
WALL97_1
WALL97_2
WALL97_3
W98_1
W98_2
W99_1
W99_2
W101_1
W101_2
W102_1
W102_2
W103_1
W103_2
W104_1
W105_1
W106_1
W107_1
W108_1
W108_2
W108_3
W108_4
W109_1
W109_2
W110_1
M1_1
WALL03_3
WALL04_9
WALL04_A
WALL04_B
WALL04_C
W15_6
RIPW15
WALL21_1
WALL21_3
WALL21_5
DOOR11_1
DOOR12_1
DOOR2_3
DOOR9_2
SNAK7_1
SNAK8_1
HELL5_1
HELL5_2
HELL6_1
HELL6_2
HELL6_3
HELL8_1
HELL8_2
HELL8_3
HELL8_4
SPINE3_1
SPINE3_2
SPINE4_1
SW15_1
SW15_3
SW15_4
SW15_6
SW16_1
SW16_2
SW16_4
SW16_6
SW17_1
SW17_2
SW17_3
SW18_5
MWALL1_1
MWALL1_2
MWALL2_1
MWALL3_1
MWALL4_1
MWALL4_2
MWALL5_1
T14_3
BCRATEL1
BCRATEM1
BCRATER1
GCRATEL1
GCRATEM1
GCRATER1
VGCRATE1
LADDER16
SGCRATE2
CYL1_1
TP3_1
TP3_2
TP5_1
TP5_2
TP5_3
TP5_4
TP7_1
TP7_2
COMP03_2
RP1_1
RP1_2
RP2_1
RP2_2
RP2_3
RP2_4
SW2_1
SW2_2
SW2_3
SW2_4
SW2_5
SW2_6
SW2_7
SW2_8
DUCT1
PS15A0
PS18A0
SKY2
SKY3
SKY4
RWDMON1
RWDMON2
RWDMON3
RWDMON4
RWDMON5
RWDMON7
RWDMON8
RWDMON9
RWDMON10
RWDM11A
RWDM11B
RWDM11C
RWDM11D

# List of Floors and Ceilings
[flats]
FLOOR0_1
FLOOR0_3
FLOOR0_6
FLOOR1_1
FLOOR1_7
FLOOR3_3
FLOOR4_1
FLOOR4_5
FLOOR4_6
FLOOR4_8
FLOOR5_1
FLOOR5_2
FLOOR5_3
FLOOR5_4
STEP1
STEP2
FLOOR6_1
FLOOR6_2
TLITE6_1
TLITE6_4
TLITE6_5
TLITE6_6
FLOOR7_1
FLOOR7_2
MFLR8_1
DEM1_1
DEM1_2
DEM1_3
DEM1_4
CEIL3_1
CEIL3_2
CEIL3_5
CEIL4_2
CEIL4_3
CEIL5_1
CEIL5_2
FLAT1
FLAT2
FLAT5
FLAT10
FLAT14
FLAT18
FLAT20
FLAT22
FLAT23
FLAT5_4
FLAT5_5
CONS1_1
CONS1_5
CONS1_7
NUKAGE1
NUKAGE2
NUKAGE3
F_SKY1
SFLR6_1
SFLR6_4
SFLR7_1
SFLR7_4
FLOOR0_2
FLOOR0_5
FLOOR0_7
FLOOR1_6
GATE1
GATE2
GATE3
GATE4
FWATER1
FWATER2
FWATER3
FWATER4
LAVA1
LAVA2
LAVA3
LAVA4
DEM1_5
DEM1_6
MFLR8_2
MFLR8_3
MFLR8_4
CEIL1_1
CEIL1_2
CEIL1_3
CEIL3_3
CEIL3_4
CEIL3_6
CEIL4_1
BLOOD1
BLOOD2
BLOOD3
FLAT1_1
FLAT1_2
FLAT1_3
FLAT5_1
FLAT5_2
FLAT5_3
FLAT5_6
FLAT5_7
FLAT5_8
CRATOP1
CRATOP2
FLAT3
FLAT4
FLAT8
FLAT9
FLAT17
FLAT19
COMP01

# End of extraction

# DeuTex 5.2.1
# PWAD creation directives

# List of levels
[levels]
E1M1
E1M2
E1M3
E1M4
E1M5
E1M6
E1M7
E1M8
E1M9
E2M1
E2M2
E2M3
E2M4
E2M5
E2M6
E2M7
E2M8
E2M9
E3M1
E3M2
E3M3
E3M4
E3M5
E3M6
E3M7
E3M8
E3M9
E4M1
E4M2
E4M3
E4M4
E4M5
E4M6
E4M7
E4M8
E4M9
MAP01
MAP02
MAP03
MAP04
MAP05

# End of extraction
# DeuTex 5.2.1
# PWAD creation directives

# List of levels
[levels]
E1M1
E1M2
E1M3
E1M4
E1M5
E1M6
E1M7
E1M8
E1M9
E2M1
E2M2
E2M3
E2M4
E2M5
E2M6
E2M7
E2M8
E2M9
E3M1
E3M2
E3M3
E3M4
E3M5
E3M6
E3M7
E3M8
E3M9
E4M1
E4M2
E4M3
E4M4
E4M5
E4M6
E4M7
E4M8
E4M9
MAP01
MAP02
MAP03
MAP04
MAP05
E1M1
E1M2
E1M3
E1M4
E1M5
E1M6
E1M7
E1M8
E1M9
E2M1
E2M2
E2M3
E2M4
E2M5
E2M6
E2M7
E2M8
E2M9
E3M1
E3M2
E3M3
E3M4
E3M5
E3M6
E3M7
E3M8
E3M9
E4M1
E4M2
E4M3
E4M4
E4M5
E4M6
E4M7
E4M8
E4M9
MAP01
MAP02
MAP03
MAP04
MAP05

# End of extraction
